専門演習
…
ティブルはデータフレームの完全な上位互換であるため、ティブルはデータフレームでもある。しかし、逆は成立しない。

is.data.frame(star) # starはtibble構造だが、data.frame構造でもある

[1] TRUE

データを眺める

方法1：print(オブジェクト名)（n引数で出力行数が指定可能; 既定値は10）

簡単に確認するためにはこれで十分

print(star) # 5行だけ確認したい場合は print(star, n = 4)

# A tibble: 1,274 × 4
   classtype reading  math graduated
   <chr>       <dbl> <dbl>     <dbl>
 1 small         578   610         1
 2 regular       612   612         1
 3 regular       583   606         1
 4 small         661   648         1
 5 small         614   636         1
 6 regular       610   603         0
 7 small         595   610         1
 8 small         665   631         1
 9 regular       616   636         1
10 regular       624   626         1
# ℹ 1,264 more rows
…
